{
    "en": {
        "cmdDoesNotExists": "This command does not exists",
        "noprefix": "You have to specify a new prefix",
        "newprefix": "New bot prefix: ",
        "lang": "Language updated",
        "nolang": "I don't know this language. Avalaible languages: ",
        "stfu": "ok i'll stop talking here",
        "speak": "ok i'll spam here",
        "addRespSyntax": "This response could not be added. Please follow this syntax:\n*prefix*addresponse *message*|*response*",
        "newrep": "New automatic response added",
        "noresp": "I don't have any response for that message",
        "delrep": "This automatic response has been deleted",
        "needmention": "You have to mention someone",
        "kicked": ":wave:",
        "noinvite": "Your stupid guild does not have any working invit link so go beg for one ok",
        "remainingvotes": "Your vote has been taken into account. Remaining votes to kick this person: ",
        "waitvote": "You already voted recently. Please wait ",
        "waitvote2": " seconds.",
        "guildprefix": "My prefix in this guild is: ",
        "cmdlist": "List of avalaible commands: ",
        "delall": "All the automatic responses has been removed.",
        "noadmin": "You have to be administrator to execute this command.",
        "spamwarning": "shut up",
        "spamkicked": "haha gtfo retard"
    },
    "fr": {
        "cmdDoesNotExists": "Cette commande n'existe pas",
        "noprefix": "Vous devez préciser le nouveau préfixe",
        "newprefix": "Nouveau préfixe du bot: ",
        "lang": "Langue mise à jour",
        "nolang": "Je ne connais pas cette langue. Liste des langues disponibles: ",
        "stfu": "ok j'arrête de parler ici",
        "speak": "uee je peux parler",
        "addRespSyntax": "La réponse n'a pas pu être ajoutée. Syntaxe de la commande:\n*préfixe*addresponse *message*|*réponse*",
        "newrep": "Nouvelle réponse automatique ajoutée",
        "noresp": "Je n'ai pas de réponse enregistrée pour ce message",
        "delrep": "Cette réponse automatique a été supprimée",
        "needmention": "Vous devez mentionner quelqu'un",
        "kicked": ":wave:",
        "noinvite": "Ce serveur stupide n'a pas de lien d'invitation disponible donc va en demander un oui.",
        "remainingvotes": "Le vote a été pris en compte. Nombre de votes restants: ",
        "waitvote": "T'as déjà voté récemment. Attends encore ",
        "waitvote2": " secondes.",
        "guildprefix": "Mon préfixe dans ce serveur est: ",
        "cmdlist": "Liste des commandes disponibles: ",
        "delall": "Toutes les réponses automatiques ont été supprimées.",
        "noadmin": "Vous devez être administrateur pour exécuter cette commande",
        "spamwarning": "ta gueule",
        "spamkicked": "hop ça dégage"
    }
}
